{
    "m_GameObject": {
        "m_FileID": 0,
        "m_PathID": 0
    },
    "m_Enabled": 1,
    "m_Script": {
        "m_FileID": 0,
        "m_PathID": -4041471252985220290
    },
    "m_Name": "wpn_spe_00",
    "Targets": [
        {
            "TargetName": "wpn_spe_00_bone01",
            "Kinematic": 1.0,
            "Gravity": 0.0,
            "Length": 1.0,
            "ForwardAxis": 0,
            "Damping": 3.0,
            "Acceleration": 15.0,
            "AngularLimit": 90.0
        },
        {
            "TargetName": "wpn_spe_00_bone02",
            "Kinematic": 1.0,
            "Gravity": 0.0,
            "Length": 1.0,
            "ForwardAxis": 0,
            "Damping": 3.0,
            "Acceleration": 15.0,
            "AngularLimit": 40.0
        }
    ],
    "SkirtTraceTargets": []
}