{
    "m_GameObject": {
        "m_FileID": 0,
        "m_PathID": 0
    },
    "m_Enabled": 1,
    "m_Script": {
        "m_FileID": 0,
        "m_PathID": 5812833946668022119
    },
    "m_Name": "cada",
    "Normal": {
        "m_FileID": 0,
        "m_PathID": -8680808536993263068
    },
    "Smile": {
        "m_FileID": 0,
        "m_PathID": -3442790048727589684
    },
    "Sad": {
        "m_FileID": 0,
        "m_PathID": -8680808536993263068
    },
    "Angry": {
        "m_FileID": 0,
        "m_PathID": 2071087985238932211
    }
}