[
    {
        "fields": {
            "appeal_id": "quest_ad_ap_half", 
            "end_at": "2022-02-23 23:59:59", 
            "id": 1, 
            "start_at": "2022-02-17 00:00:00",
            "type": 0
        }, 
        "pk": 1
    }, 
    {
        "fields": {
            "appeal_id": "quest_ad_multi_drop_x2", 
            "end_at": "2021-12-29 23:59:59", 
            "id": 2, 
            "start_at": "2021-12-23 00:00:00",
            "type": 0
        }, 
        "pk": 2
    }, 
    {
        "fields": {
            "appeal_id": "quest_ad_drop_x2", 
            "end_at": "2022-02-16 23:59:59", 
            "id": 3, 
            "start_at": "2022-02-10 00:00:00",
            "type": 0
        }, 
        "pk": 3
    }, 
    {
        "fields": {
            "appeal_id": "quest_ad_story_drop_exp_x2", 
            "end_at": "2022-01-12 23:59:59", 
            "id": 4, 
            "start_at": "2022-01-06 00:00:00",
            "type": 0
        }, 
        "pk": 4
    }, 
    {
        "fields": {
            "appeal_id": "quest_ad_drop_x3", 
            "end_at": "2021-12-01 23:59:59", 
            "id": 5, 
            "start_at": "2021-11-25 00:00:00",
            "type": 0
        }, 
        "pk": 5
    }, 
    {
        "fields": {
            "appeal_id": "quest_ad_hard_drop_x2", 
            "end_at": "2022-02-09 23:59:59", 
            "id": 6, 
            "start_at": "2022-02-03 00:00:00",
            "type": 0
        }, 
        "pk": 6
    }, 
    {
        "fields": {
            "appeal_id": "quest_ad_arena_coin_x2", 
            "end_at": "2017-05-18 14:49:59", 
            "id": 7, 
            "start_at": "2017-05-11 15:00:00",
            "type": 0
        }, 
        "pk": 7
    },
    {
        "fields": {
            "appeal_id": "101", 
            "end_at": "2020-01-31 23:59:59", 
            "id": 101, 
            "start_at": "2020-01-01 00:00:00",
            "type": 1
        }, 
        "pk": 101
    },
    {
        "fields": {
            "appeal_id": "201", 
            "end_at": "2020-01-31 23:59:59", 
            "id": 201, 
            "start_at": "2020-01-01 00:00:00",
            "type": 2
        }, 
        "pk": 201
    }
]