[
    {
        "fields": {
            "after_img_id": "001_0", 
            "appeal_id": "001", 
            "before_img_id": "001_0", 
            "end_at": "2019-10-10 14:59:59", 
            "id": 1, 
            "start_at": "2019-10-01 00:00:00"
        }, 
        "pk": 1
    }, 
    {
        "fields": {
            "after_img_id": "002_0", 
            "appeal_id": "002", 
            "before_img_id": "002_0", 
            "end_at": "2019-06-13 14:59:59", 
            "id": 2, 
            "start_at": "2019-06-08 00:00:00"
        }, 
        "pk": 2
    }
]