[
    {
        "fields": {
            "appeal_id": "003", 
            "end_at": "2019-12-31 23:59:59", 
            "id": 1, 
            "start_at": "2019-12-26 10:00:00"
        }, 
        "pk": 1
    }, 
    {
        "fields": {
            "appeal_id": "002", 
            "end_at": "2020-01-16 14:59:59", 
            "id": 2, 
            "start_at": "2020-01-01 00:00:00"
        }, 
        "pk": 2
    }, 
    {
        "fields": {
            "appeal_id": "001", 
            "end_at": "2020-01-27 14:59:59", 
            "id": 3, 
            "start_at": "2020-01-16 15:00:00"
        }, 
        "pk": 3
    }
]