{
    "m_GameObject": {
        "m_FileID": 0,
        "m_PathID": 0
    },
    "m_Enabled": 1,
    "m_Script": {
        "m_FileID": 0,
        "m_PathID": 4843320728867073298
    },
    "m_Name": "charge",
    "Items": [
        {
            "ID": "001",
            "Sprite": {
                "m_FileID": 0,
                "m_PathID": 7828665102783838893
            }
        },
        {
            "ID": "002",
            "Sprite": {
                "m_FileID": 0,
                "m_PathID": 7828665102783838893
            }
        }
    ]
}