{
    "m_GameObject": {
        "m_FileID": 0,
        "m_PathID": 0
    },
    "m_Enabled": 1,
    "m_Script": {
        "m_FileID": 0,
        "m_PathID": 522912102410608360
    },
    "m_Name": "OrdealQuestList_Images",
    "Items": [
        {
            "n": "QE_OR_SIREN_1",
            "s": {
                "m_FileID": 1,
                "m_PathID": -1836416812593549478
            }
        },
        {
            "n": "QE_OR_SIREN_2",
            "s": {
                "m_FileID": 0,
                "m_PathID": -2706445144590999746
            }
        },
        {
            "n": "QE_OR_SIREN_WAGINAO_3",
            "s": {
                "m_FileID": 0,
                "m_PathID": 664820525080090277
            }
        },
        {
            "n": "QE_OR_SIREN_WAGINAO_4",
            "s": {
                "m_FileID": 0,
                "m_PathID": 7478869349484539921
            }
        },
        {
            "n": "QE_OR_SIREN_3",
            "s": {
                "m_FileID": 0,
                "m_PathID": 25510852591281431
            }
        },
        {
            "n": "QE_OR_SIREN_WAGINAO_5",
            "s": {
                "m_FileID": 0,
                "m_PathID": 7478869349484539921
            }
        }
    ]
}