{
    "m_GameObject": {
        "m_FileID": 0,
        "m_PathID": 0
    },
    "m_Enabled": 1,
    "m_Script": {
        "m_FileID": 0,
        "m_PathID": 18
    },
    "m_Name": "Rig_Muscle",
    "RootBoneName": "Bip001_pos",
    "Skeletons": [
        {
            "name": "",
            "bones": []
        }
    ],
    "LeftHand": "Bip001 Prop2",
    "LeftHandChangeLists": [
        "Bip001 Prop1",
        "Bip001 Prop3",
        "Bip001 Prop4",
        "Bip001 Prop5",
        "Bip001 Prop6",
        "Bip001 Prop7",
        "Bip001 Prop8",
        "Bip001 Prop9"
    ],
    "RightHand": "Bip001 Prop1",
    "RightHandChangeLists": [
        "Bip001 Prop2",
        "Bip001 Prop3",
        "Bip001 Prop4",
        "Bip001 Prop5",
        "Bip001 Prop6",
        "Bip001 Prop7",
        "Bip001 Prop8",
        "Bip001 Prop9"
    ],
    "TertiaryPlace": "Bip001 Prop3",
    "TertiaryPlaceChangeLists": [
        "Bip001 Prop1",
        "Bip001 Prop2",
        "Bip001 Prop4",
        "Bip001 Prop5",
        "Bip001 Prop6",
        "Bip001 Prop7",
        "Bip001 Prop8",
        "Bip001 Prop9"
    ],
    "OptionAttachLists": [],
    "EquipmentScale": 1.2000000476837158,
    "Height": 1.0,
    "Head": "Bip001 Head"
}