{
    "m_GameObject": {
        "m_FileID": 0,
        "m_PathID": 0
    },
    "m_Enabled": 1,
    "m_Script": {
        "m_FileID": 0,
        "m_PathID": 5812833946668022119
    },
    "m_Name": "rat_arm_00",
    "Normal": {
        "m_FileID": 0,
        "m_PathID": 4492580820449321178
    },
    "Smile": {
        "m_FileID": 0,
        "m_PathID": 4492580820449321178
    },
    "Sad": {
        "m_FileID": 0,
        "m_PathID": 4492580820449321178
    },
    "Angry": {
        "m_FileID": 0,
        "m_PathID": -540130445087635883
    }
}