{
    "m_GameObject": {
        "m_FileID": 0,
        "m_PathID": 0
    },
    "m_Enabled": 1,
    "m_Script": {
        "m_FileID": 0,
        "m_PathID": 5812833946668022119
    },
    "m_Name": "ev_liz_brig_a",
    "Normal": {
        "m_FileID": 0,
        "m_PathID": -681629157006496184
    },
    "Smile": {
        "m_FileID": 0,
        "m_PathID": -681629157006496184
    },
    "Sad": {
        "m_FileID": 0,
        "m_PathID": -681629157006496184
    },
    "Angry": {
        "m_FileID": 0,
        "m_PathID": -8722118189044203060
    }
}