{
    "m_GameObject": {
        "m_FileID": 0,
        "m_PathID": 0
    },
    "m_Enabled": 1,
    "m_Script": {
        "m_FileID": 0,
        "m_PathID": 522912102410608360
    },
    "m_Name": "EventBoard_SideTabs",
    "Items": [
        {
            "n": "ui_side_eventboard_newplayer_0",
            "s": {
                "m_FileID": 0,
                "m_PathID": -5670546143318958142
            }
        },
        {
            "n": "ui_side_eventboard_firstpurchase_APR2019_0",
            "s": {
                "m_FileID": 0,
                "m_PathID": 8023862919178380374
            }
        },
        {
            "n": "ui_side_eventboard_gembonusAPR2019_0",
            "s": {
                "m_FileID": 0,
                "m_PathID": 1408237683488030444
            }
        },
        {
            "n": "ui_side_eventboard_levelup_0",
            "s": {
                "m_FileID": 0,
                "m_PathID": -2380171278500218509
            }
        },
        {
            "n": "ui_side_eventboard_pvp_0",
            "s": {
                "m_FileID": 0,
                "m_PathID": 4188405062895449458
            }
        },
        {
            "n": "ui_side_eventboard_returningplayer_0",
            "s": {
                "m_FileID": 0,
                "m_PathID": 5583989066205481024
            }
        },
        {
            "n": "ui_side_eventboard_specialmilestone_0",
            "s": {
                "m_FileID": 0,
                "m_PathID": 6115943008304286715
            }
        },
        {
            "n": "ui_side_eventboard_arenachallenge_0",
            "s": {
                "m_FileID": 0,
                "m_PathID": -2791649520642604252
            }
        },
        {
            "n": "ui_side_eventboard_producer_giveaway_0",
            "s": {
                "m_FileID": 0,
                "m_PathID": 558245728944078959
            }
        },
        {
            "n": "ui_side_eventboard_winter_2019_0",
            "s": {
                "m_FileID": 0,
                "m_PathID": 1428232910223338567
            }
        },
        {
            "n": "ui_side_eventboard_newyear_2020_0",
            "s": {
                "m_FileID": 0,
                "m_PathID": 8569629083399476895
            }
        },
        {
            "n": "ui_side_eventboard_gear_tb_2020_0",
            "s": {
                "m_FileID": 0,
                "m_PathID": -3990746996185342108
            }
        },
        {
            "n": "ui_side_eventboard_suzuka_skin_0",
            "s": {
                "m_FileID": 0,
                "m_PathID": -8059753542960651718
            }
        },
        {
            "n": "ui_side_eventboard_growth_TS_MELYODAS_0",
            "s": {
                "m_FileID": 0,
                "m_PathID": -5849984230549244623
            }
        },
        {
            "n": "ui_side_eventboard_Collab_TS_MELYODAS",
            "s": {
                "m_FileID": 0,
                "m_PathID": 4343082177533843026
            }
        },
        {
            "n": "ui_side_eventboard_gem_TS_MELYODAS_0",
            "s": {
                "m_FileID": 0,
                "m_PathID": -7426954593016961567
            }
        },
        {
            "n": "ui_side_eventboard_gem_TS_DIANE_0",
            "s": {
                "m_FileID": 0,
                "m_PathID": 1297833176522300294
            }
        },
        {
            "n": "ui_side_eventboard_gem_TS_KING_0",
            "s": {
                "m_FileID": 0,
                "m_PathID": 1638613085092353504
            }
        },
        {
            "n": "ui_side_eventboard_collection_TS_DIANEKING_0",
            "s": {
                "m_FileID": 0,
                "m_PathID": 5740136118628922963
            }
        },
        {
            "n": "ui_side_eventboard_growth_TS_DIANE_0",
            "s": {
                "m_FileID": 0,
                "m_PathID": -7110595507413261278
            }
        },
        {
            "n": "ui_side_eventboard_growth_TS_KING_0",
            "s": {
                "m_FileID": 0,
                "m_PathID": 6249849782839918018
            }
        },
        {
            "n": "ui_side_eventboard_collection_TS_GOUSERUBAN_0",
            "s": {
                "m_FileID": 0,
                "m_PathID": -1602809132855034025
            }
        },
        {
            "n": "ui_side_eventboard_growth_TS_BAN_0",
            "s": {
                "m_FileID": 0,
                "m_PathID": -7955391823886172341
            }
        },
        {
            "n": "ui_side_eventboard_growth_TS_GOUSERU_0",
            "s": {
                "m_FileID": 0,
                "m_PathID": 250468317620591914
            }
        },
        {
            "n": "ui_side_eventboard_gem_TS_BAN_0",
            "s": {
                "m_FileID": 0,
                "m_PathID": 4130308018346523376
            }
        },
        {
            "n": "ui_side_eventboard_gem_TS_GOUSERU_0",
            "s": {
                "m_FileID": 0,
                "m_PathID": -913521394934061799
            }
        },
        {
            "n": "ui_side_eventboard_ssm_0",
            "s": {
                "m_FileID": 0,
                "m_PathID": -4581092474379299064
            }
        },
        {
            "n": "ui_side_eventboard_versionup_v6_0",
            "s": {
                "m_FileID": 0,
                "m_PathID": 4608346694897554242
            }
        },
        {
            "n": "ui_side_eventboard_gem_genesiscoin_0",
            "s": {
                "m_FileID": 0,
                "m_PathID": 1447899621067223514
            }
        },
        {
            "n": "ui_side_eventboard_gem_watershard_0",
            "s": {
                "m_FileID": 0,
                "m_PathID": 5159658208059999466
            }
        },
        {
            "n": "ui_side_eventboard_gem_lightshard_0",
            "s": {
                "m_FileID": 0,
                "m_PathID": 871873040386653836
            }
        },
        {
            "n": "ui_side_eventboard_gem_fireshard_0",
            "s": {
                "m_FileID": 0,
                "m_PathID": 3732968636393226689
            }
        },
        {
            "n": "ui_side_eventboard_gem_darkshard_0",
            "s": {
                "m_FileID": 0,
                "m_PathID": -6697869817451116399
            }
        },
        {
            "n": "ui_side_eventboard_gem_pokcoin_0",
            "s": {
                "m_FileID": 0,
                "m_PathID": -8963975353641248991
            }
        },
        {
            "n": "ui_side_eventboard_gem_everica_0",
            "s": {
                "m_FileID": 0,
                "m_PathID": 6054458547962415690
            }
        },
        {
            "n": "ui_side_eventboard_gem_minario_0",
            "s": {
                "m_FileID": 0,
                "m_PathID": -907712777052996565
            }
        },
        {
            "n": "ui_side_eventboard_gem_ikasa_0",
            "s": {
                "m_FileID": 0,
                "m_PathID": 4151628565751546813
            }
        },
        {
            "n": "ui_side_eventboard_gem_emrys_0",
            "s": {
                "m_FileID": 0,
                "m_PathID": 5656409489459785296
            }
        },
        {
            "n": "ui_side_eventboard_gem_mashuli_0",
            "s": {
                "m_FileID": 0,
                "m_PathID": 6856876385812940820
            }
        },
        {
            "n": "ui_side_eventboard_memento_new_0",
            "s": {
                "m_FileID": 0,
                "m_PathID": 0
            }
        },
        {
            "n": "ui_side_eventboard_memento_new_1",
            "s": {
                "m_FileID": 0,
                "m_PathID": -7564781404981082034
            }
        },
        {
            "n": "ui_side_eventboard_summon_new_0",
            "s": {
                "m_FileID": 0,
                "m_PathID": 641620536196529085
            }
        },
        {
            "n": "ui_side_eventboard_summon_new_1",
            "s": {
                "m_FileID": 0,
                "m_PathID": 8617528486671198916
            }
        },
        {
            "n": "ui_side_eventboard_summon_new_2",
            "s": {
                "m_FileID": 0,
                "m_PathID": -4511328169808465686
            }
        },
        {
            "n": "ui_side_eventboard_bundle_new_0",
            "s": {
                "m_FileID": 0,
                "m_PathID": 4878938708940229012
            }
        },
        {
            "n": "ui_side_eventboard_bundle_new_1",
            "s": {
                "m_FileID": 0,
                "m_PathID": -2597680025616058502
            }
        },
        {
            "n": "ui_side_eventboard_bundle_new_2",
            "s": {
                "m_FileID": 0,
                "m_PathID": 758371460757749745
            }
        },
        {
            "n": "ui_side_eventboard_bundle_new_3",
            "s": {
                "m_FileID": 0,
                "m_PathID": -4056222668921149314
            }
        },
        {
            "n": "ui_side_eventboard_bundle_new_4",
            "s": {
                "m_FileID": 0,
                "m_PathID": 1555296864035295254
            }
        },
        {
            "n": "ui_side_eventboard_gem_red6_0",
            "s": {
                "m_FileID": 0,
                "m_PathID": -4826698895483132067
            }
        },
        {
            "n": "ui_side_eventboard_pvp_s9_0",
            "s": {
                "m_FileID": 0,
                "m_PathID": -7118240866550735007
            }
        },
        {
            "n": "ui_side_eventboard_gem_jukkai_0",
            "s": {
                "m_FileID": 0,
                "m_PathID": -4747440686300899002
            }
        },
        {
            "n": "ui_side_eventboard_gem_lilith_0",
            "s": {
                "m_FileID": 0,
                "m_PathID": -5352322369246403102
            }
        },
        {
            "n": "ui_side_eventboard_gem_eliza_0",
            "s": {
                "m_FileID": 0,
                "m_PathID": 5937696249858720088
            }
        },
        {
            "n": "ui_side_eventboard_gem_purchase_sb_0",
            "s": {
                "m_FileID": 0,
                "m_PathID": -9194562122079949115
            }
        },
        {
            "n": "ui_side_eventboard_gem_spend_sb_0",
            "s": {
                "m_FileID": 0,
                "m_PathID": 2595898411922268024
            }
        },
        {
            "n": "ui_side_eventboard_summon_sh_0",
            "s": {
                "m_FileID": 0,
                "m_PathID": 6804842927604946527
            }
        },
        {
            "n": "ui_side_eventboard_summon_sh_1",
            "s": {
                "m_FileID": 0,
                "m_PathID": 2020155033644932078
            }
        },
        {
            "n": "ui_side_eventboard_gem_purchase_kakuseicollabo_0",
            "s": {
                "m_FileID": 0,
                "m_PathID": 23197919166086005
            }
        },
        {
            "n": "ui_side_eventboard_gem_purchase_genzou_0",
            "s": {
                "m_FileID": 0,
                "m_PathID": -2714584866830532312
            }
        },
        {
            "n": "ui_side_eventboard_gem_spend_genesiscoin_0",
            "s": {
                "m_FileID": 0,
                "m_PathID": 8443191773222940691
            }
        },
        {
            "n": "ui_side_eventboard_gem_purchase_juuriadark_0",
            "s": {
                "m_FileID": 0,
                "m_PathID": 8162631077032542177
            }
        },
        {
            "n": "ui_side_eventboard_gem_purchase_kakusei_0",
            "s": {
                "m_FileID": 0,
                "m_PathID": 6266812209560208392
            }
        },
        {
            "n": "ui_side_eventboard_gem_purchase_rachel_0",
            "s": {
                "m_FileID": 0,
                "m_PathID": 860177576398757041
            }
        },
        {
            "n": "ui_side_eventboard_gem_purchase_ainanna_0",
            "s": {
                "m_FileID": 0,
                "m_PathID": -1355778752999209311
            }
        },
        {
            "n": "ui_side_eventboard_gem_purchase_yuen_0",
            "s": {
                "m_FileID": 0,
                "m_PathID": -2300749599590893128
            }
        },
        {
            "n": "ui_side_eventboard_gem_spend_plumeria_0",
            "s": {
                "m_FileID": 0,
                "m_PathID": -7115669600955661262
            }
        },
        {
            "n": "ui_side_eventboard_gem_purchase_nicaea_0",
            "s": {
                "m_FileID": 0,
                "m_PathID": 6221634671032265515
            }
        },
        {
            "n": "ui_side_eventboard_gem_purchase_naju_0",
            "s": {
                "m_FileID": 0,
                "m_PathID": -7899420264838880824
            }
        },
        {
            "n": "ui_side_eventboard_pvp_0",
            "s": {
                "m_FileID": 0,
                "m_PathID": -7083445943571421462
            }
        },
        {
            "n": "ui_side_eventboard_gem_purchase_ryui_0",
            "s": {
                "m_FileID": 0,
                "m_PathID": -23262560660167322
            }
        },
        {
            "n": "ui_side_eventboard_gem_spend_commonall_0",
            "s": {
                "m_FileID": 0,
                "m_PathID": -8462452183806983869
            }
        },
        {
            "n": "ui_side_eventboard_gem_spend_conceptlus_0",
            "s": {
                "m_FileID": 0,
                "m_PathID": -1392324221481773785
            }
        },
        {
            "n": "ui_side_eventboard_gem_purchase_leychel_0",
            "s": {
                "m_FileID": 0,
                "m_PathID": 8296378024445926232
            }
        },
        {
            "n": "ui_side_eventboard_gem_purchase_nesha_0",
            "s": {
                "m_FileID": 0,
                "m_PathID": -8219298573104829570
            }
        },
        {
            "n": "ui_side_eventboard_gem_spend_conceptenv_0",
            "s": {
                "m_FileID": 0,
                "m_PathID": 3107711584535631840
            }
        },
        {
            "n": "ui_side_eventboard_gem_purchase_pok_minerva_0",
            "s": {
                "m_FileID": 0,
                "m_PathID": 5071144430060246885
            }
        },
        {
            "n": "ui_side_eventboard_gem_purchase_pok_hercule_0",
            "s": {
                "m_FileID": 0,
                "m_PathID": -368162900208698767
            }
        },
        {
            "n": "ui_side_eventboard_gem_purchase_newunitselector_0",
            "s": {
                "m_FileID": 0,
                "m_PathID": -8841723422988672946
            }
        },
        {
            "n": "ui_side_eventboard_gem_purchase_tsp_rimuru_0",
            "s": {
                "m_FileID": 0,
                "m_PathID": 754106068029825615
            }
        },
        {
            "n": "ui_side_eventboard_gem_spend_tspcoin_0",
            "s": {
                "m_FileID": 0,
                "m_PathID": 3246385568260940757
            }
        },
        {
            "n": "ui_side_eventboard_summon_slime_0",
            "s": {
                "m_FileID": 0,
                "m_PathID": -8677537257214663396
            }
        },
        {
            "n": "ui_side_eventboard_gem_purchase_tsp_millim_0",
            "s": {
                "m_FileID": 0,
                "m_PathID": -328456294121011438
            }
        },
        {
            "n": "ui_side_eventboard_gem_purchase_tsp_benimaru_0",
            "s": {
                "m_FileID": 0,
                "m_PathID": -7343718581632653410
            }
        },
        {
            "n": "ui_side_eventboard_summon_slime_1",
            "s": {
                "m_FileID": 0,
                "m_PathID": -7581945886442951200
            }
        },
        {
            "n": "ui_side_eventboard_pvp_s11_0",
            "s": {
                "m_FileID": 0,
                "m_PathID": -5476209208342068087
            }
        },
        {
            "n": "ui_side_eventboard_gem_purchase_zex_0",
            "s": {
                "m_FileID": 0,
                "m_PathID": -1650400938944130116
            }
        },
        {
            "n": "ui_side_eventboard_gem_spend_conceptslo_0",
            "s": {
                "m_FileID": 0,
                "m_PathID": 6761258352684056026
            }
        },
        {
            "n": "ui_side_eventboard_gem_purchase_gl_liwang_0",
            "s": {
                "m_FileID": 0,
                "m_PathID": -7407982376421354231
            }
        },
        {
            "n": "ui_side_eventboard_gem_purchase_natsume_0",
            "s": {
                "m_FileID": 0,
                "m_PathID": -6871793621280528674
            }
        },
        {
            "n": "ui_side_eventboard_gem_spend_conceptwad_0",
            "s": {
                "m_FileID": 0,
                "m_PathID": -5330943747817356742
            }
        },
        {
            "n": "ui_side_eventboard_gem_spend_autumn_0",
            "s": {
                "m_FileID": 0,
                "m_PathID": -7058855966853273385
            }
        },
        {
            "n": "ui_side_eventboard_gem_purchase_yura_0",
            "s": {
                "m_FileID": 0,
                "m_PathID": -933559670943569317
            }
        },
        {
            "n": "ui_side_eventboard_gem_purchase_irene_0",
            "s": {
                "m_FileID": 0,
                "m_PathID": 1343927507401778118
            }
        },
        {
            "n": "ui_side_eventboard_gem_spend_sealselector_0",
            "s": {
                "m_FileID": 0,
                "m_PathID": 8622433025172463268
            }
        },
        {
            "n": "ui_side_eventboard_gem_spend_concepthg_0",
            "s": {
                "m_FileID": 0,
                "m_PathID": -3283224855991972242
            }
        },
        {
            "n": "ui_side_eventboard_gem_purchase_otherworldershard_0",
            "s": {
                "m_FileID": 0,
                "m_PathID": -4792445479723843815
            }
        },
        {
            "n": "ui_side_eventboard_gem_spend_otherworldrelief_0",
            "s": {
                "m_FileID": 0,
                "m_PathID": -8724953563697866466
            }
        },
        {
            "n": "ui_side_eventboard_gem_purchase_gl_grimm1_0",
            "s": {
                "m_FileID": 0,
                "m_PathID": -6764591046637227512
            }
        },
        {
            "n": "ui_side_eventboard_gem_spend_globaloriginalrelief_0",
            "s": {
                "m_FileID": 0,
                "m_PathID": -3878569601208975097
            }
        },
        {
            "n": "ui_side_eventboard_gem_purchase_newunitselectorceles_0",
            "s": {
                "m_FileID": 0,
                "m_PathID": -2420905426607600466
            }
        },
        {
            "n": "ui_side_eventboard_gem_spend_halloweenrelief_0",
            "s": {
                "m_FileID": 0,
                "m_PathID": -6917948933944514391
            }
        },
        {
            "n": "ui_side_eventboard_seasonpass2021_0",
            "s": {
                "m_FileID": 0,
                "m_PathID": -3975659716147543002
            }
        },
        {
            "n": "ui_side_eventboard_gem_purchase_gl_4thAnni_0",
            "s": {
                "m_FileID": 0,
                "m_PathID": 1231575133904663537
            }
        },
        {
            "n": "ui_side_eventboard_gem_purchase_kakuseipri_0",
            "s": {
                "m_FileID": 0,
                "m_PathID": -6467217727516925410
            }
        },
        {
            "n": "ui_side_eventboard_gem_spend_gl_4thAnni_0",
            "s": {
                "m_FileID": 0,
                "m_PathID": -6392266407242556363
            }
        },
        {
            "n": "ui_side_eventboard_gem_purchase_otherworldlypri_0",
            "s": {
                "m_FileID": 0,
                "m_PathID": 6862932578927646025
            }
        },
        {
            "n": "ui_side_eventboard_gem_spend_tscoin_0",
            "s": {
                "m_FileID": 0,
                "m_PathID": 2352585052748478683
            }
        },
        {
            "n": "ui_side_eventboard_summon_7DS2_0",
            "s": {
                "m_FileID": 0,
                "m_PathID": -1794024399243101523
            }
        },
        {
            "n": "ui_side_eventboard_summon_7DS2_1",
            "s": {
                "m_FileID": 0,
                "m_PathID": -3325238528515823351
            }
        },
        {
            "n": "ui_side_eventboard_gem_purchase_benika_0",
            "s": {
                "m_FileID": 0,
                "m_PathID": 5241916452491933326
            }
        },
        {
            "n": "ui_side_eventboard_gem_purchase_kubera_0",
            "s": {
                "m_FileID": 0,
                "m_PathID": -5457972872348796806
            }
        },
        {
            "n": "ui_side_eventboard_gem_spend_conceptwinter_0",
            "s": {
                "m_FileID": 0,
                "m_PathID": 3150315938522087760
            }
        },
        {
            "n": "ui_side_eventboard_gem_spend_conceptwada_0",
            "s": {
                "m_FileID": 0,
                "m_PathID": -3427078434590581591
            }
        },
        {
            "n": "ui_side_eventboard_gem_purchase_claris_0",
            "s": {
                "m_FileID": 0,
                "m_PathID": 8195212977507372038
            }
        },
        {
            "n": "ui_side_eventboard_gem_spend_conceptnor_0",
            "s": {
                "m_FileID": 0,
                "m_PathID": 6957597034466479196
            }
        },
        {
            "n": "ui_side_eventboard_gem_purchase_crymasakado_0",
            "s": {
                "m_FileID": 0,
                "m_PathID": -1035112165004640037
            }
        },
        {
            "n": "ui_side_eventboard_gem_spend_crycollabcoin_0",
            "s": {
                "m_FileID": 0,
                "m_PathID": -5093011773366844294
            }
        },
        {
            "n": "ui_side_eventboard_gem_purchase_crydarkolivier_0",
            "s": {
                "m_FileID": 0,
                "m_PathID": -2535836044545235569
            }
        },
        {
            "n": "ui_side_eventboard_seasonpass2022_0",
            "s": {
                "m_FileID": 0,
                "m_PathID": -4522132093199308370
            }
        },
        {
            "n": "ui_side_eventboard_gem_purchase_gl_lachesis_0",
            "s": {
                "m_FileID": 0,
                "m_PathID": -8596937030880954598
            }
        },
        {
            "n": "ui_side_eventboard_gem_purchase_gl_ignacio_0",
            "s": {
                "m_FileID": 0,
                "m_PathID": -775592965503295028
            }
        }
    ]
}