﻿001		EQ_APRILFOOL2021_02_a_2d.neville_2021april_0028
002		EQ_APRILFOOL2021_02_a_2d.vlad_2021april_0018
003		EQ_APRILFOOL2021_02_a_2d.neville_2021april_0029
004		EQ_APRILFOOL2021_02_a_2d.vlad_2021april_0019
005		EQ_APRILFOOL2021_02_a_2d.neville_2021april_0030
006		EQ_APRILFOOL2021_02_a_2d.vlad_2021april_0020
007		EQ_APRILFOOL2021_02_a_2d.neville_2021april_0031
008		EQ_APRILFOOL2021_02_a_2d.caesar_2021april_0030
009		EQ_APRILFOOL2021_02_a_2d.neville_2021april_0032
010		EQ_APRILFOOL2021_02_a_2d.neville_2021april_0033
011		EQ_APRILFOOL2021_02_a_2d.vlad_2021april_0021
012		EQ_APRILFOOL2021_02_a_2d.neville_2021april_0034
013		EQ_APRILFOOL2021_02_a_2d.vlad_2021april_0022
014		EQ_APRILFOOL2021_02_a_2d.vlad_2021april_0023
015		EQ_APRILFOOL2021_02_a_2d.vlad_2021april_0024
016		EQ_APRILFOOL2021_02_a_2d.neville_2021april_0035
017		EQ_APRILFOOL2021_02_a_2d.vlad_2021april_0025
018		EQ_APRILFOOL2021_02_a_2d.caesar_2021april_0031
019		EQ_APRILFOOL2021_02_a_2d.neville_2021april_0036
020		EQ_APRILFOOL2021_02_a_2d.caesar_2021april_0032
021		EQ_APRILFOOL2021_02_a_2d.neville_2021april_0037
022		EQ_APRILFOOL2021_02_a_2d.caesar_2021april_0033
023		EQ_APRILFOOL2021_02_a_2d.neville_2021april_0038
024		EQ_APRILFOOL2021_02_a_2d.caesar_2021april_0034
025		EQ_APRILFOOL2021_02_a_2d.neville_2021april_0039
026		EQ_APRILFOOL2021_02_a_2d.caesar_2021april_0035
027		EQ_APRILFOOL2021_02_a_2d.neville_2021april_0040
028		EQ_APRILFOOL2021_02_a_2d.caesar_2021april_0036
029		EQ_APRILFOOL2021_02_a_2d.neville_2021april_0041
030		EQ_APRILFOOL2021_02_a_2d.caesar_2021april_0037
031		EQ_APRILFOOL2021_02_a_2d.neville_2021april_0042
032		EQ_APRILFOOL2021_02_a_2d.caesar_2021april_0038
033		EQ_APRILFOOL2021_02_a_2d.caesar_2021april_0039
034		EQ_APRILFOOL2021_02_a_2d.neville_2021april_0043
035		EQ_APRILFOOL2021_02_a_2d.caesar_2021april_0040
036		EQ_APRILFOOL2021_02_a_2d.caesar_2021april_0041
037		EQ_APRILFOOL2021_02_a_2d.neville_2021april_0044
038		EQ_APRILFOOL2021_02_a_2d.caesar_2021april_0042
039		EQ_APRILFOOL2021_02_a_2d.neville_2021april_0045
040		EQ_APRILFOOL2021_02_a_2d.caesar_2021april_0043
041		EQ_APRILFOOL2021_02_a_2d.caesar_2021april_0044
042		EQ_APRILFOOL2021_02_a_2d.neville_2021april_0046
043		EQ_APRILFOOL2021_02_a_2d.vlad_2021april_0026
044		EQ_APRILFOOL2021_02_a_2d.neville_2021april_0047
045		EQ_APRILFOOL2021_02_a_2d.vlad_2021april_0027
046		EQ_APRILFOOL2021_02_a_2d.neville_2021april_0048
047		EQ_APRILFOOL2021_02_a_2d.vlad_2021april_0028
048	
049		EQ_APRILFOOL2021_02_a_2d.vlad_2021april_0029
050		EQ_APRILFOOL2021_02_a_2d.neville_2021april_0050
051		EQ_APRILFOOL2021_02_a_2d.vlad_2021april_0030
052		EQ_APRILFOOL2021_02_a_2d.vlad_2021april_0031
053	
054		EQ_APRILFOOL2021_02_a_2d.vlad_2021april_0032
055		EQ_APRILFOOL2021_02_a_2d.neville_2021april_0052