﻿001	I think I got enough clothes.
002	I should report back with this.
003	Found some clothes, sis. Which is good?
004	Was there an explosion?
005	Are you alright?
006	Of course! No robot can defeat me!
007	And here...
008	Hmmm...
009	...Oh?! Kukuku...
010	You'll look so "cute" in this.