﻿001		VO_ankh.ankh_sys_0031
002		VO_ankh.ankh_sys_0030
003		VO_balt.balt_sys_0022
004	
005		VO_balt.balt_sys_0005
006		VO_ankh.ankh_sys_0010
007		VO_balt.balt_sys_0007
008		VO_karla.karla_sys_0039
009	
010	
011		VO_karla.karla_sys_0006
012		VO_ankh.ankh_sys_0031
013	
014		VO_karla.karla_sys_0030
015		VO_balt.balt_sys_0031
016	
017		VO_karla.karla_sys_0004
018		VO_karla.karla_sys_0025