﻿001		VO_emilia.emilia_sys_0001
002	
003	
004		VO_subaru.subaru_sys_0026
005		VO_emilia.emilia_sys_0031
006		VO_emilia.emilia_sys_0001
007		VO_pack.pack_sys_0031
008		VO_uroboros.uroboros_sys_0004
009	
010		VO_uroboros.uroboros_favorite_0001
011		VO_subaru.subaru_sys_0031
012		VO_emilia.emilia_sys_0026
013		VO_uroboros.uroboros_sys_0006
014	
015	
016		VO_uroboros.uroboros_sys_0001
017		VO_subaru.subaru_sys_0017
018		VO_emilia.emilia_sys_0031
019		VO_uroboros.uroboros_sys_0002
020	
021	
022		VO_subaru.subaru_sys_0026
023		VO_emilia.emilia_sys_0029
024	
025		VO_emilia.emilia_sys_0004
026		VO_subaru.subaru_sys_0044
027		VO_pack.pack_sys_0035
028		VO_subaru.subaru_sys_0007
029	
030		VO_subaru.subaru_sys_0004
031		VO_emilia.emilia_sys_0007
032		VO_uroboros.uroboros_sys_0006
033	
034		VO_subaru.subaru_sys_0031
035	
036		VO_pack.pack_sys_0031
037	
038		VO_emilia.emilia_sys_0026