﻿001	I thought of you as my true brother.	tut001b.logi_story0101_0007
001a	Dias, my beloved brother, let's end this!	tut001b.logi_story0101_0007_02
002	No, Logi! There's no lie in the bond we've built!	tut001b.agasa_story0101_0002
002a	Both of you are and continue to be irreplaceable brothers!	tut001b.agasa_story0101_0002_02
003	Huzzah!!!	tut001b.logi_story0101_0008
004	Huzzah!!!	tut001b.dios_story0101_0007
005	No!	tut001b.logi_dios_story0101_0009_0008
006	Huh?!
007	Don't forget that love never fades.	tut001b.agasa_story0101_0003
007a	Nor will my feelings for both of you.	tut001b.agasa_story0101_0003_02