{
    "m_GameObject": {
        "m_FileID": 0,
        "m_PathID": 0
    },
    "m_Enabled": 1,
    "m_Script": {
        "m_FileID": 0,
        "m_PathID": 5812833946668022119
    },
    "m_Name": "melvy",
    "Normal": {
        "m_FileID": 0,
        "m_PathID": -6809481989300443331
    },
    "Smile": {
        "m_FileID": 0,
        "m_PathID": -2789667503452229130
    },
    "Sad": {
        "m_FileID": 0,
        "m_PathID": -6809481989300443331
    },
    "Angry": {
        "m_FileID": 0,
        "m_PathID": -6809481989300443331
    }
}