{
    "m_GameObject": {
        "m_FileID": 0,
        "m_PathID": 0
    },
    "m_Enabled": 1,
    "m_Script": {
        "m_FileID": 0,
        "m_PathID": 80
    },
    "m_Name": "HomeQuestBalloonSprite",
    "Items": [
        {
            "n": "2020may",
            "s": {
                "m_FileID": 6,
                "m_PathID": -8826984941671563191
            }
        },
        {
            "n": "2020june",
            "s": {
                "m_FileID": 43,
                "m_PathID": -7536036848382467600
            }
        }
    ]
}