{
    "m_GameObject": {
        "m_FileID": 0,
        "m_PathID": 0
    },
    "m_Enabled": 1,
    "m_Script": {
        "m_FileID": 0,
        "m_PathID": 3356862276655919354
    },
    "m_Name": "limitedshop",
    "Items": [
        {
            "ID": "g_200917DLC",
            "CharSprite": {
                "m_FileID": 0,
                "m_PathID": 0
            },
            "TextLSprite": {
                "m_FileID": 0,
                "m_PathID": -6651562527124945847
            },
            "TextRSprite": {
                "m_FileID": 0,
                "m_PathID": -6709368791132334896
            }
        },
        {
            "ID": "g_200924DLC",
            "CharSprite": {
                "m_FileID": 0,
                "m_PathID": 0
            },
            "TextLSprite": {
                "m_FileID": 0,
                "m_PathID": 6980386673640456293
            },
            "TextRSprite": {
                "m_FileID": 0,
                "m_PathID": -99370385718288747
            }
        },
        {
            "ID": "g_201001DLC",
            "CharSprite": {
                "m_FileID": 0,
                "m_PathID": 0
            },
            "TextLSprite": {
                "m_FileID": 0,
                "m_PathID": 8174476997958097828
            },
            "TextRSprite": {
                "m_FileID": 0,
                "m_PathID": -3402144651265460776
            }
        },
        {
            "ID": "g_201008DLC",
            "CharSprite": {
                "m_FileID": 0,
                "m_PathID": 0
            },
            "TextLSprite": {
                "m_FileID": 0,
                "m_PathID": 5475105163513474387
            },
            "TextRSprite": {
                "m_FileID": 0,
                "m_PathID": -2512262258203097049
            }
        },
        {
            "ID": "g_201015DLC",
            "CharSprite": {
                "m_FileID": 0,
                "m_PathID": 0
            },
            "TextLSprite": {
                "m_FileID": 0,
                "m_PathID": -8909823453453407102
            },
            "TextRSprite": {
                "m_FileID": 0,
                "m_PathID": -4287855112442781495
            }
        },
        {
            "ID": "g_201022DLC",
            "CharSprite": {
                "m_FileID": 0,
                "m_PathID": 0
            },
            "TextLSprite": {
                "m_FileID": 0,
                "m_PathID": -1894264622386482285
            },
            "TextRSprite": {
                "m_FileID": 0,
                "m_PathID": 8537281873936595725
            }
        },
        {
            "ID": "g_201029DLC",
            "CharSprite": {
                "m_FileID": 0,
                "m_PathID": 0
            },
            "TextLSprite": {
                "m_FileID": 0,
                "m_PathID": -1894264622386482285
            },
            "TextRSprite": {
                "m_FileID": 0,
                "m_PathID": 8537281873936595725
            }
        },
        {
            "ID": "g_201105DLC",
            "CharSprite": {
                "m_FileID": 0,
                "m_PathID": 0
            },
            "TextLSprite": {
                "m_FileID": 0,
                "m_PathID": 2781162374851579173
            },
            "TextRSprite": {
                "m_FileID": 0,
                "m_PathID": 6799263546025492274
            }
        },
        {
            "ID": "g_201112DLC",
            "CharSprite": {
                "m_FileID": 0,
                "m_PathID": 0
            },
            "TextLSprite": {
                "m_FileID": 0,
                "m_PathID": 3385079400910605698
            },
            "TextRSprite": {
                "m_FileID": 0,
                "m_PathID": 4823618697046979164
            }
        },
        {
            "ID": "g_201119DLC",
            "CharSprite": {
                "m_FileID": 0,
                "m_PathID": 0
            },
            "TextLSprite": {
                "m_FileID": 0,
                "m_PathID": 5604353492146520623
            },
            "TextRSprite": {
                "m_FileID": 0,
                "m_PathID": 2061185172255369565
            }
        },
        {
            "ID": "g_201126DLC",
            "CharSprite": {
                "m_FileID": 0,
                "m_PathID": 0
            },
            "TextLSprite": {
                "m_FileID": 0,
                "m_PathID": 6714322062820037656
            },
            "TextRSprite": {
                "m_FileID": 0,
                "m_PathID": -4329601169572267053
            }
        },
        {
            "ID": "g_201203DLC",
            "CharSprite": {
                "m_FileID": 0,
                "m_PathID": 0
            },
            "TextLSprite": {
                "m_FileID": 0,
                "m_PathID": 7303462419113619200
            },
            "TextRSprite": {
                "m_FileID": 0,
                "m_PathID": -4204868925331282866
            }
        },
        {
            "ID": "g_201210DLC",
            "CharSprite": {
                "m_FileID": 0,
                "m_PathID": 0
            },
            "TextLSprite": {
                "m_FileID": 0,
                "m_PathID": -3220483328007655902
            },
            "TextRSprite": {
                "m_FileID": 0,
                "m_PathID": 552608048229959416
            }
        },
        {
            "ID": "g_201217DLC",
            "CharSprite": {
                "m_FileID": 0,
                "m_PathID": 0
            },
            "TextLSprite": {
                "m_FileID": 0,
                "m_PathID": 7350751546251961900
            },
            "TextRSprite": {
                "m_FileID": 0,
                "m_PathID": -2642896853728784831
            }
        },
        {
            "ID": "g_201223DLC",
            "CharSprite": {
                "m_FileID": 0,
                "m_PathID": 0
            },
            "TextLSprite": {
                "m_FileID": 0,
                "m_PathID": -3110269128860040771
            },
            "TextRSprite": {
                "m_FileID": 0,
                "m_PathID": -3847007624234492332
            }
        },
        {
            "ID": "g_201230DLC",
            "CharSprite": {
                "m_FileID": 0,
                "m_PathID": 0
            },
            "TextLSprite": {
                "m_FileID": 0,
                "m_PathID": -5869587473908045523
            },
            "TextRSprite": {
                "m_FileID": 0,
                "m_PathID": 4353594167089743709
            }
        },
        {
            "ID": "g_210107DLC",
            "CharSprite": {
                "m_FileID": 0,
                "m_PathID": 0
            },
            "TextLSprite": {
                "m_FileID": 0,
                "m_PathID": -4859688500073393348
            },
            "TextRSprite": {
                "m_FileID": 0,
                "m_PathID": 5625223129531244083
            }
        },
        {
            "ID": "g_210114DLC",
            "CharSprite": {
                "m_FileID": 0,
                "m_PathID": 0
            },
            "TextLSprite": {
                "m_FileID": 0,
                "m_PathID": 854003793497471408
            },
            "TextRSprite": {
                "m_FileID": 0,
                "m_PathID": -680808881473689547
            }
        },
        {
            "ID": "g_210121DLC",
            "CharSprite": {
                "m_FileID": 0,
                "m_PathID": 0
            },
            "TextLSprite": {
                "m_FileID": 0,
                "m_PathID": 5886064254036912002
            },
            "TextRSprite": {
                "m_FileID": 0,
                "m_PathID": 3215631614710696807
            }
        },
        {
            "ID": "g_210128DLC",
            "CharSprite": {
                "m_FileID": 0,
                "m_PathID": 0
            },
            "TextLSprite": {
                "m_FileID": 0,
                "m_PathID": -5468061569353963818
            },
            "TextRSprite": {
                "m_FileID": 0,
                "m_PathID": 4381470085778650111
            }
        },
        {
            "ID": "g_210204DLC",
            "CharSprite": {
                "m_FileID": 0,
                "m_PathID": 0
            },
            "TextLSprite": {
                "m_FileID": 0,
                "m_PathID": 1052916034093428364
            },
            "TextRSprite": {
                "m_FileID": 0,
                "m_PathID": -1144135383297429213
            }
        },
        {
            "ID": "g_210210DLC",
            "CharSprite": {
                "m_FileID": 0,
                "m_PathID": 0
            },
            "TextLSprite": {
                "m_FileID": 0,
                "m_PathID": -618925040171261625
            },
            "TextRSprite": {
                "m_FileID": 0,
                "m_PathID": -6483111577598436855
            }
        },
        {
            "ID": "g_210218DLC",
            "CharSprite": {
                "m_FileID": 0,
                "m_PathID": 0
            },
            "TextLSprite": {
                "m_FileID": 0,
                "m_PathID": -5058467607530807240
            },
            "TextRSprite": {
                "m_FileID": 0,
                "m_PathID": 5644716863419828838
            }
        },
        {
            "ID": "g_210225DLC",
            "CharSprite": {
                "m_FileID": 0,
                "m_PathID": 0
            },
            "TextLSprite": {
                "m_FileID": 0,
                "m_PathID": 2634111216557949688
            },
            "TextRSprite": {
                "m_FileID": 0,
                "m_PathID": -6203625268221102531
            }
        },
        {
            "ID": "g_210304DLC",
            "CharSprite": {
                "m_FileID": 0,
                "m_PathID": 0
            },
            "TextLSprite": {
                "m_FileID": 0,
                "m_PathID": 6606813229137125944
            },
            "TextRSprite": {
                "m_FileID": 0,
                "m_PathID": -5349093792713805739
            }
        },
        {
            "ID": "g_210311DLC",
            "CharSprite": {
                "m_FileID": 0,
                "m_PathID": 0
            },
            "TextLSprite": {
                "m_FileID": 0,
                "m_PathID": -7951471676371425091
            },
            "TextRSprite": {
                "m_FileID": 0,
                "m_PathID": -6674597658434587704
            }
        },
        {
            "ID": "g_210318DLC",
            "CharSprite": {
                "m_FileID": 0,
                "m_PathID": 0
            },
            "TextLSprite": {
                "m_FileID": 0,
                "m_PathID": -5646256864411876697
            },
            "TextRSprite": {
                "m_FileID": 0,
                "m_PathID": 3218051940094642199
            }
        },
        {
            "ID": "g_210325DLC",
            "CharSprite": {
                "m_FileID": 0,
                "m_PathID": 0
            },
            "TextLSprite": {
                "m_FileID": 0,
                "m_PathID": -2338798840726531762
            },
            "TextRSprite": {
                "m_FileID": 0,
                "m_PathID": -2047236027659374975
            }
        },
        {
            "ID": "g_210401DLC",
            "CharSprite": {
                "m_FileID": 0,
                "m_PathID": 0
            },
            "TextLSprite": {
                "m_FileID": 0,
                "m_PathID": -5391082957888016139
            },
            "TextRSprite": {
                "m_FileID": 0,
                "m_PathID": -7520822841068667018
            }
        },
        {
            "ID": "g_210408DLC",
            "CharSprite": {
                "m_FileID": 0,
                "m_PathID": 0
            },
            "TextLSprite": {
                "m_FileID": 0,
                "m_PathID": -1632253219476653411
            },
            "TextRSprite": {
                "m_FileID": 0,
                "m_PathID": 8312346339948458992
            }
        },
        {
            "ID": "g_210415DLC",
            "CharSprite": {
                "m_FileID": 0,
                "m_PathID": 0
            },
            "TextLSprite": {
                "m_FileID": 0,
                "m_PathID": -8145515759361179024
            },
            "TextRSprite": {
                "m_FileID": 0,
                "m_PathID": 8066973185123897298
            }
        },
        {
            "ID": "g_210422DLC",
            "CharSprite": {
                "m_FileID": 0,
                "m_PathID": 0
            },
            "TextLSprite": {
                "m_FileID": 0,
                "m_PathID": 5777979297659444701
            },
            "TextRSprite": {
                "m_FileID": 0,
                "m_PathID": 55704783916163074
            }
        },
        {
            "ID": "g_210429DLC",
            "CharSprite": {
                "m_FileID": 0,
                "m_PathID": 0
            },
            "TextLSprite": {
                "m_FileID": 0,
                "m_PathID": -1758703444411928238
            },
            "TextRSprite": {
                "m_FileID": 0,
                "m_PathID": -5398839532075950861
            }
        },
        {
            "ID": "g_210506DLC",
            "CharSprite": {
                "m_FileID": 0,
                "m_PathID": 0
            },
            "TextLSprite": {
                "m_FileID": 0,
                "m_PathID": 869376327721153733
            },
            "TextRSprite": {
                "m_FileID": 0,
                "m_PathID": -6232022387349037022
            }
        },
        {
            "ID": "g_210512DLC",
            "CharSprite": {
                "m_FileID": 0,
                "m_PathID": 0
            },
            "TextLSprite": {
                "m_FileID": 0,
                "m_PathID": -2078315801281452088
            },
            "TextRSprite": {
                "m_FileID": 0,
                "m_PathID": -7154900812202713312
            }
        },
        {
            "ID": "g_210520DLC",
            "CharSprite": {
                "m_FileID": 0,
                "m_PathID": 0
            },
            "TextLSprite": {
                "m_FileID": 0,
                "m_PathID": 3914424195307856627
            },
            "TextRSprite": {
                "m_FileID": 0,
                "m_PathID": -575166735859274265
            }
        },
        {
            "ID": "g_210527DLC",
            "CharSprite": {
                "m_FileID": 0,
                "m_PathID": 0
            },
            "TextLSprite": {
                "m_FileID": 0,
                "m_PathID": -3270195703483315886
            },
            "TextRSprite": {
                "m_FileID": 0,
                "m_PathID": -4375923992923833172
            }
        },
        {
            "ID": "g_210603DLC",
            "CharSprite": {
                "m_FileID": 0,
                "m_PathID": 0
            },
            "TextLSprite": {
                "m_FileID": 0,
                "m_PathID": -4161244150701964465
            },
            "TextRSprite": {
                "m_FileID": 0,
                "m_PathID": 5818159156335487883
            }
        },
        {
            "ID": "g_210610DLC",
            "CharSprite": {
                "m_FileID": 0,
                "m_PathID": 0
            },
            "TextLSprite": {
                "m_FileID": 0,
                "m_PathID": -2424880228087240184
            },
            "TextRSprite": {
                "m_FileID": 0,
                "m_PathID": -916672057598365730
            }
        },
        {
            "ID": "g_210617DLC",
            "CharSprite": {
                "m_FileID": 0,
                "m_PathID": 0
            },
            "TextLSprite": {
                "m_FileID": 0,
                "m_PathID": 7516017741773767074
            },
            "TextRSprite": {
                "m_FileID": 0,
                "m_PathID": -3270101180025901611
            }
        },
        {
            "ID": "g_210624DLC",
            "CharSprite": {
                "m_FileID": 0,
                "m_PathID": 0
            },
            "TextLSprite": {
                "m_FileID": 0,
                "m_PathID": -7519634507909657294
            },
            "TextRSprite": {
                "m_FileID": 0,
                "m_PathID": 8380897492563663079
            }
        },
        {
            "ID": "g_210701DLC",
            "CharSprite": {
                "m_FileID": 0,
                "m_PathID": 0
            },
            "TextLSprite": {
                "m_FileID": 0,
                "m_PathID": -8906624199992559180
            },
            "TextRSprite": {
                "m_FileID": 0,
                "m_PathID": -5192653893835366720
            }
        },
        {
            "ID": "g_210709DLC",
            "CharSprite": {
                "m_FileID": 0,
                "m_PathID": 0
            },
            "TextLSprite": {
                "m_FileID": 0,
                "m_PathID": 8132302864659041870
            },
            "TextRSprite": {
                "m_FileID": 0,
                "m_PathID": 3462005994176314060
            }
        },
        {
            "ID": "g_210715DLC",
            "CharSprite": {
                "m_FileID": 0,
                "m_PathID": 0
            },
            "TextLSprite": {
                "m_FileID": 0,
                "m_PathID": -2892954757736474960
            },
            "TextRSprite": {
                "m_FileID": 0,
                "m_PathID": -6975354183745866858
            }
        },
        {
            "ID": "g_210722DLC",
            "CharSprite": {
                "m_FileID": 0,
                "m_PathID": 0
            },
            "TextLSprite": {
                "m_FileID": 0,
                "m_PathID": 8786555482052964374
            },
            "TextRSprite": {
                "m_FileID": 0,
                "m_PathID": -2075653097848795535
            }
        },
        {
            "ID": "g_210729DLC",
            "CharSprite": {
                "m_FileID": 0,
                "m_PathID": 0
            },
            "TextLSprite": {
                "m_FileID": 0,
                "m_PathID": -8528889638571793829
            },
            "TextRSprite": {
                "m_FileID": 0,
                "m_PathID": 3201399051461551724
            }
        },
        {
            "ID": "g_210805DLC",
            "CharSprite": {
                "m_FileID": 0,
                "m_PathID": 0
            },
            "TextLSprite": {
                "m_FileID": 0,
                "m_PathID": 4656120048401753201
            },
            "TextRSprite": {
                "m_FileID": 0,
                "m_PathID": -7868122379977936868
            }
        },
        {
            "ID": "g_210812DLC",
            "CharSprite": {
                "m_FileID": 0,
                "m_PathID": 0
            },
            "TextLSprite": {
                "m_FileID": 0,
                "m_PathID": -5669689357000058265
            },
            "TextRSprite": {
                "m_FileID": 0,
                "m_PathID": -5981146836674444196
            }
        },
        {
            "ID": "g_210819DLC",
            "CharSprite": {
                "m_FileID": 0,
                "m_PathID": 0
            },
            "TextLSprite": {
                "m_FileID": 0,
                "m_PathID": -1174550903548268655
            },
            "TextRSprite": {
                "m_FileID": 0,
                "m_PathID": 6510108081725068183
            }
        },
        {
            "ID": "g_210826DLC",
            "CharSprite": {
                "m_FileID": 0,
                "m_PathID": 0
            },
            "TextLSprite": {
                "m_FileID": 0,
                "m_PathID": -7032411933088028964
            },
            "TextRSprite": {
                "m_FileID": 0,
                "m_PathID": -6302707742872556089
            }
        },
        {
            "ID": "g_210902DLC",
            "CharSprite": {
                "m_FileID": 0,
                "m_PathID": 0
            },
            "TextLSprite": {
                "m_FileID": 0,
                "m_PathID": 7398035492115667044
            },
            "TextRSprite": {
                "m_FileID": 0,
                "m_PathID": -1905222452034448726
            }
        },
        {
            "ID": "g_210909DLC",
            "CharSprite": {
                "m_FileID": 0,
                "m_PathID": 0
            },
            "TextLSprite": {
                "m_FileID": 0,
                "m_PathID": -396506004356053450
            },
            "TextRSprite": {
                "m_FileID": 0,
                "m_PathID": 5708012590482337362
            }
        },
        {
            "ID": "g_210916DLC",
            "CharSprite": {
                "m_FileID": 0,
                "m_PathID": 0
            },
            "TextLSprite": {
                "m_FileID": 0,
                "m_PathID": 207392910055698713
            },
            "TextRSprite": {
                "m_FileID": 0,
                "m_PathID": 3716243560734230617
            }
        },
        {
            "ID": "g_210923DLC",
            "CharSprite": {
                "m_FileID": 0,
                "m_PathID": 0
            },
            "TextLSprite": {
                "m_FileID": 0,
                "m_PathID": 7735914297985919772
            },
            "TextRSprite": {
                "m_FileID": 0,
                "m_PathID": 369719624965107392
            }
        },
        {
            "ID": "g_210930DLC",
            "CharSprite": {
                "m_FileID": 0,
                "m_PathID": 0
            },
            "TextLSprite": {
                "m_FileID": 0,
                "m_PathID": 8285915938162283942
            },
            "TextRSprite": {
                "m_FileID": 0,
                "m_PathID": 7794713657678752870
            }
        },
        {
            "ID": "g_211007DLC",
            "CharSprite": {
                "m_FileID": 0,
                "m_PathID": 0
            },
            "TextLSprite": {
                "m_FileID": 0,
                "m_PathID": -5164220336173644935
            },
            "TextRSprite": {
                "m_FileID": 0,
                "m_PathID": 1826102269086830124
            }
        },
        {
            "ID": "g_211014DLC",
            "CharSprite": {
                "m_FileID": 0,
                "m_PathID": 0
            },
            "TextLSprite": {
                "m_FileID": 0,
                "m_PathID": 4343080851690853874
            },
            "TextRSprite": {
                "m_FileID": 0,
                "m_PathID": 3348256076134421888
            }
        },
        {
            "ID": "g_211021DLC",
            "CharSprite": {
                "m_FileID": 0,
                "m_PathID": 0
            },
            "TextLSprite": {
                "m_FileID": 0,
                "m_PathID": -5823350185912185420
            },
            "TextRSprite": {
                "m_FileID": 0,
                "m_PathID": -3463657494322181185
            }
        },
        {
            "ID": "g_211028DLC",
            "CharSprite": {
                "m_FileID": 0,
                "m_PathID": 0
            },
            "TextLSprite": {
                "m_FileID": 0,
                "m_PathID": -383310800736215644
            },
            "TextRSprite": {
                "m_FileID": 0,
                "m_PathID": -8165674841633135495
            }
        },
        {
            "ID": "g_211103DLC",
            "CharSprite": {
                "m_FileID": 0,
                "m_PathID": 0
            },
            "TextLSprite": {
                "m_FileID": 0,
                "m_PathID": 4562174670865845002
            },
            "TextRSprite": {
                "m_FileID": 0,
                "m_PathID": -4125820421546965255
            }
        },
        {
            "ID": "g_211111DLC",
            "CharSprite": {
                "m_FileID": 0,
                "m_PathID": 0
            },
            "TextLSprite": {
                "m_FileID": 0,
                "m_PathID": -4581153948211150081
            },
            "TextRSprite": {
                "m_FileID": 0,
                "m_PathID": -4544956186430322174
            }
        },
        {
            "ID": "g_211118DLC",
            "CharSprite": {
                "m_FileID": 0,
                "m_PathID": 0
            },
            "TextLSprite": {
                "m_FileID": 0,
                "m_PathID": -7060026501068930454
            },
            "TextRSprite": {
                "m_FileID": 0,
                "m_PathID": 6946661166383359063
            }
        },
        {
            "ID": "g_211125DLC",
            "CharSprite": {
                "m_FileID": 0,
                "m_PathID": 0
            },
            "TextLSprite": {
                "m_FileID": 0,
                "m_PathID": -2688573168363547748
            },
            "TextRSprite": {
                "m_FileID": 0,
                "m_PathID": -8569650331040931699
            }
        },
        {
            "ID": "g_211202DLC",
            "CharSprite": {
                "m_FileID": 0,
                "m_PathID": 0
            },
            "TextLSprite": {
                "m_FileID": 0,
                "m_PathID": 7899147477993028573
            },
            "TextRSprite": {
                "m_FileID": 0,
                "m_PathID": 7079347253927998497
            }
        },
        {
            "ID": "g_211209DLC",
            "CharSprite": {
                "m_FileID": 0,
                "m_PathID": 0
            },
            "TextLSprite": {
                "m_FileID": 0,
                "m_PathID": 1157101694250166917
            },
            "TextRSprite": {
                "m_FileID": 0,
                "m_PathID": -879510110343444802
            }
        },
        {
            "ID": "g_211216DLC",
            "CharSprite": {
                "m_FileID": 0,
                "m_PathID": 0
            },
            "TextLSprite": {
                "m_FileID": 0,
                "m_PathID": 5495350009016401961
            },
            "TextRSprite": {
                "m_FileID": 0,
                "m_PathID": 992490259043842633
            }
        },
        {
            "ID": "g_211223DLC",
            "CharSprite": {
                "m_FileID": 0,
                "m_PathID": 0
            },
            "TextLSprite": {
                "m_FileID": 0,
                "m_PathID": 5241087286614905702
            },
            "TextRSprite": {
                "m_FileID": 0,
                "m_PathID": 9206876294989263920
            }
        },
        {
            "ID": "g_211230DLC",
            "CharSprite": {
                "m_FileID": 0,
                "m_PathID": 0
            },
            "TextLSprite": {
                "m_FileID": 0,
                "m_PathID": 3230657555445236325
            },
            "TextRSprite": {
                "m_FileID": 0,
                "m_PathID": -7609561183382561449
            }
        },
        {
            "ID": "g_220106DLC",
            "CharSprite": {
                "m_FileID": 0,
                "m_PathID": 0
            },
            "TextLSprite": {
                "m_FileID": 0,
                "m_PathID": -1491709533063629790
            },
            "TextRSprite": {
                "m_FileID": 0,
                "m_PathID": 2563845560034219821
            }
        },
        {
            "ID": "g_220120DLC",
            "CharSprite": {
                "m_FileID": 0,
                "m_PathID": 0
            },
            "TextLSprite": {
                "m_FileID": 0,
                "m_PathID": -6001984053385107462
            },
            "TextRSprite": {
                "m_FileID": 0,
                "m_PathID": -8660266557764952180
            }
        },
        {
            "ID": "g_220127DLC",
            "CharSprite": {
                "m_FileID": 0,
                "m_PathID": 0
            },
            "TextLSprite": {
                "m_FileID": 0,
                "m_PathID": 5753126475638384136
            },
            "TextRSprite": {
                "m_FileID": 0,
                "m_PathID": -5928567340411969698
            }
        },
        {
            "ID": "g_220203DLC",
            "CharSprite": {
                "m_FileID": 0,
                "m_PathID": 0
            },
            "TextLSprite": {
                "m_FileID": 0,
                "m_PathID": 7868109916056358359
            },
            "TextRSprite": {
                "m_FileID": 0,
                "m_PathID": -6667636532294548062
            }
        },
        {
            "ID": "g_220210DLC",
            "CharSprite": {
                "m_FileID": 0,
                "m_PathID": 0
            },
            "TextLSprite": {
                "m_FileID": 0,
                "m_PathID": 8715872497776934436
            },
            "TextRSprite": {
                "m_FileID": 0,
                "m_PathID": 2366213330249250056
            }
        },
        {
            "ID": "g_220217DLC",
            "CharSprite": {
                "m_FileID": 0,
                "m_PathID": 0
            },
            "TextLSprite": {
                "m_FileID": 0,
                "m_PathID": -8462409662454492956
            },
            "TextRSprite": {
                "m_FileID": 0,
                "m_PathID": 7476299958139381029
            }
        }
    ]
}