{
    "m_GameObject": {
        "m_FileID": 0,
        "m_PathID": 0
    },
    "m_Enabled": 1,
    "m_Script": {
        "m_FileID": 0,
        "m_PathID": 5812833946668022119
    },
    "m_Name": "ev_matt",
    "Normal": {
        "m_FileID": 0,
        "m_PathID": -5352784616286130769
    },
    "Smile": {
        "m_FileID": 0,
        "m_PathID": -5352784616286130769
    },
    "Sad": {
        "m_FileID": 0,
        "m_PathID": -5352784616286130769
    },
    "Angry": {
        "m_FileID": 0,
        "m_PathID": 4698982488550222016
    }
}