001	モンスターが強力になってきた…<br>賢者の石の影響か？
002	遺跡に近づいて来たんだ。…<br>錬金術に出会って無ければ、<br>もっと苦戦していたかもね
003	まったくだ。<br>後から来る本隊の為にも、<br>俺たちの力で敵を殲滅しておこう
004	ああ！
005	“俺たちの力で”か…
006	！？と、父さん…！
007	父上！？
008	お前たち…やはり、<br>禁忌の力を得ていたのだな？
009	ち、違うんだ！これは…
010	そ、その…俺たちは、<br>ヤツらに対抗する為に…！
011	…言い訳はいい、目の前の敵を<br>殲滅することに集中しろ。<br>話は、後で聞かせてもらう
012	……
013	……
