﻿001	ワタクシ、セラフィーヌ！<br>全宇宙の富と名声をほしいままにする<br>魔性の女ですわ！	EQ_DISGAEA01_01_b_2d.seraphina_collabo0199_0001
002	この世の男はすべてワタクシのもの！<br>さあ、ひれ伏しなさい！　オホホホホホ！	EQ_DISGAEA01_01_b_2d.seraphina_collabo0199_0002
003	ああ、愛しいセラフィーヌ！<br>お前は誰にも渡さない！<br>どうか俺と結婚してくれ!!	EQ_DISGAEA01_01_b_2d.dios_collabo0199_0001
004	…誰だ、こいつは？	EQ_DISGAEA01_01_b_2d.dios_collabo0199_0002
005	ちょっと待ったー！<br>セラフィーヌは僕のものだ！<br>蒼炎の名にかけて、誰にも渡さない!!	EQ_DISGAEA01_01_b_2d.logi_collabo0199_0001
006	ちょ…だ、誰、これ!?	EQ_DISGAEA01_01_b_2d.logi_collabo0199_0002
007	次回『セラフィーヌ物語』<br>第２話『愛ゆえに……』<br>今宵、貴方もフォーリンラヴ♥	EQ_DISGAEA01_01_b_2d.seraphina_collabo0199_0003
008	…いろんな意味で大丈夫かコレ？	EQ_DISGAEA01_01_b_2d.edgar_collabo0199_0001