﻿001	…………？<br>…ここは…？
002	ここは、闇だ<br>お前自身の中にある…闇そのものだ	VO_zain_dark.zain_dark_sys_0005
003	…どうして…わたしを…？	VO_kasumi.kasumi_sys_0003
004	みなさん…本当はリズさんたちの<br>味方だったんですよね…？<br>なのに…どうして…？
005	かつて…我らが生をもって<br>この世界に存在していたころ――	VO_zain_dark.zain_dark_sys_0007
006	私たちは、人々の為に<br>この力を使っていた…<br>しかし…	VO_setsuna_dark.setsuna_dark_sys_0004
007	死してもなお召喚され<br>戦って、戦って、戦い続けた	VO_mela_dark.mela_dark_sys_0016
008	いったい、なんの為に？	VO_nix_dark.nix_dark_sys_0012
009	我々幻影兵は、誰かの味方<br>だったことなど一度もない
010	ただ召喚され
011	命じられ
012	戦っただけ
013	時に人と<br>――召喚者の意志を貫く為に
014	時に幻影兵と<br>――契りを交わした友とでさえも
015	時に…この大陸に眠る罪と<br>――世の理に背くことになっても
016	全て、我々の意志はそこにない<br>ただ、『利用』されるのみ…	VO_zain_dark.zain_dark_sys_0005
017	――お前も<br>利用されようとしていたのではないか？	VO_zain_dark.zain_dark_sys_0008
018	我々と同じように…<br>――幻影兵とは、そのような存在だ
019	違うのだとしたら
020	――幻影兵とは、なんだ？
021	……………!!
022	わたし…役立たず…なんの役にも<br>立たない…だから…利用するしか…	VO_kasumi.kasumi_sys_0017
023	この…世界の為に…
024	わたしを…
025	!!	VO_pata.pata_sys_0025
026	どうした、パタ！<br>…もしかして、カスミの<br>アルケミィを感じたのか!?	VO_edgar.edgar_sys_0025
027	キュッ!!
028	見て、あれ!!	VO_lizbeth.lizbeth_sys_0001
029	カスミ…!!
030	わたしを…殺す…殺した…<br>消滅…わたし…消滅…!!
031	…いけない…!!<br>カスミが…闇に飲まれる！	VO_tina.tina_sys_0018
032	!?
033	このままじゃ…他の幻影兵と<br>同じように…!!
034	カスミさん!!	VO_lizbeth.lizbeth_sys_0028
035	…!!<br>邪魔を…するな!!	VO_edgar.edgar_sys_0016
