﻿001	くっ…！　遺跡が近づくにつれて<br>魔物がどんどん強くなる…!!	VO_dios.dios_battle_0023
002	これはもしや…賢者の石の<br>影響ってやつなのか？
003	くっ…!!<br>このままじゃ…!!	VO_logi.logi_battle_0023
004	ああ、だが…！	VO_dios.dios_sys_0004
005	ディオス！<br>その力は…!!	VO_logi.logi_sys_0025
006	…わかっている<br>だが、ここで死ぬわけにはいかないだろう！
007	それとも…アガサを残していくと<br>いうのかお前は!!<br>お前の騎士道は口だけのものか!?
008	!!<br>…くそっ!!!	VO_logi.logi_sys_0018
009	…ハアアアアアアアアッ!!!
010	…今は、前に進もう<br>俺達には、この力がある
011	大事なものを守る為の力が<br>…そうだろう、ロギ	VO_dios.dios_sys_0002
012	…ああ、そうだな	VO_logi.logi_sys_0037
013	『この力』か…	VO_zeke.zeke_sys_0031
014	っ!?<br>と、父さん…！	VO_logi.logi_sys_0025
015	父上!?	VO_dios.dios_sys_0025
016	お前達…<br>やはり、禁忌の力を得ていたのだな？	VO_zeke.zeke_sys_0022
017	ち、違うんだ！<br>これは…
018	そ、その…俺達は…ただ…!!
019	…言い訳はいい、<br>目の前の敵を殲滅することに集中しろ<br>話は、後で聞かせてもらう	VO_zeke.zeke_sys_0010
020	…………
