001	…何という事だ…！<br>まさか…これ程までとは…!!
002	アガサ…！<br>一体、どうしたんだ…!?<br>大丈夫か…!?
003	ガッ…!?
004	グ…グフッ…！<br>き、貴様…何故…!?
005	守ってくれたんだ…<br>この“憤怒の結晶”が!!<br>ラースの一族の想いが、この俺を…!!
006	サバレタは<br>懐から賢者の石を取りだした
007	…クッ！<br>け、賢者の石…！
008	分が悪い…脱出するぞ!!!
009	オォォォーーーッ!!
010	サバレタがアガサを担ぎ、<br>蜥蜴旅団員達は速足でその場を後にした
011	グ…！　ま、待て…！<br>…アガサーッ!!!!
