﻿001	アマネ…!!	VO_azami-b.azami-b_sys_0029
002	此の期に及んで、他人の心配とは余裕だネ	VO_ogre.ogre_battle_0003
003	さらばだ、忌まわしき一族ヨ	VO_ogre.ogre_battle_0001
004	…………!!
005	!?	VO_ogre.ogre_battle_0021
006	…アマネ!?	VO_azami-b.azami-b_sys_0025
007	…………
008	…ぬうッ!?	VO_ogre.ogre_battle_0001
009	…………
010	貴様…その太刀筋!!<br>もしや…!?	VO_ogre.ogre_battle_0003
011	…『“鬼”は、必ずこの手で！』
012	…アマネ!!
013	……!?<br>…あれ…拙者…何を…？	VO_amane-b.amane-b_sys_0025
014	貴様…何者ダ…？<br>その力…	VO_ogre.ogre_battle_0020
015	…まあいい<br>貴様は喰わずに連れ帰るとしよウ<br>無駄なあがきはせんことダ	VO_ogre.ogre_battle_0019
016	…あがくのが無駄…？<br>確かにそうかもしれない…
017	…でも…アザミの気持ちを考えたら…<br>黙って喰われるわけにはいかない…！	VO_amane-b.amane-b_sys_0016
018	泣いてるアザミを見て、<br>拙者は…アザミに笑ってほしい<br>…そう思ったんだ!!
019	………アマネ<br>あなた…	VO_azami-b.azami-b_sys_0018
020	あがくことの何が悪い…	VO_amane-b.amane-b_sys_0012
021	生きたいと思うことの、何が悪い!!
022	…!!
023	…アザミ、諦めちゃダメだ<br>あいつを倒すことはできないかもしれない<br>けど…生き延びることはできるかもしれない	VO_amane-b.amane-b_sys_0001
024	…………!!<br>ハアアアアアアッ!!!	VO_azami-b.azami-b_sys_0032
025	…やれやれ<br>本当に人間というのは理解し難いヨ	VO_ogre.ogre_battle_0003
026	結果が変わらないのに、あがいて<br>どうなるというのかネ？	VO_ogre.ogre_battle_0019
027	まだ、結果は出ていないっ	VO_amane-b.amane-b_sys_0005
028	そうね<br>あなたの言う通りだわ、アマネ<br>…それに何より…	VO_azami-b.azami-b_sys_0004
029	妹が戦ってるのを、姉として<br>黙って見ているわけにはいかないわ！
030	ならば、すぐに結果を見せてやろウ	VO_ogre.ogre_battle_0001
031	片方は儂が喰らってやル<br>片方は…連れ帰って調べねばナ!!	VO_ogre.ogre_battle_0003
032	無駄なあがきだったナ	VO_ogre.ogre_battle_0002
033	無駄じゃ…ない!!	VO_amane-b.amane-b_sys_0042
034	こんな理不尽に奪われてたまるか…<br>負けて…たまるか!!!
035	拙者は…拙者たちは…	VO_amane-b.amane-b_sys_0016
036	生きてやるんだ!!!
037	笑止	VO_ogre.ogre_battle_0001
038	…その意気や、よし	VO_celis.celis_sys_0004
039	グガアアアアッ!!!	VO_ogre.ogre_battle_0021
040	!!!?
041	…よく頑張ったわね、あなたたち<br>もう、大丈夫よ
042	あ、あなたは…？	VO_azami-b.azami-b_sys_0001
043	鬼掃隊“刃狐”のセリスよ
044	グ…貴様!!	VO_ogre.ogre_battle_0020
045	これで、違う結果も見えるかしらね？	VO_celis.celis_sys_0010
