{
    "m_GameObject": {
        "m_FileID": 0,
        "m_PathID": 0
    },
    "m_Enabled": 1,
    "m_Script": {
        "m_FileID": 0,
        "m_PathID": 522912102410608360
    },
    "m_Name": "Ability_Image",
    "Items": [
        {
            "n": "ABILITY_TITLE_NORMAL",
            "s": {
                "m_FileID": 0,
                "m_PathID": -8381407374164906661
            }
        },
        {
            "n": "ABILITY_TITLE_WEAPON",
            "s": {
                "m_FileID": 0,
                "m_PathID": 5482737007379021845
            }
        },
        {
            "n": "ABILITY_TITLE_MASTER",
            "s": {
                "m_FileID": 0,
                "m_PathID": 8724376692343605783
            }
        },
        {
            "n": "ABILITY_TITLE_VISION",
            "s": {
                "m_FileID": 0,
                "m_PathID": 8593150977711172
            }
        },
        {
            "n": "ABILITY_TITLE_GROUP",
            "s": {
                "m_FileID": 0,
                "m_PathID": 1884179572529580839
            }
        }
    ]
}