{
    "m_GameObject": {
        "m_FileID": 0,
        "m_PathID": 0
    },
    "m_Enabled": 1,
    "m_Script": {
        "m_FileID": 0,
        "m_PathID": 5812833946668022119
    },
    "m_Name": "saromo",
    "Normal": {
        "m_FileID": 0,
        "m_PathID": -7262536206291977155
    },
    "Smile": {
        "m_FileID": 0,
        "m_PathID": -1359278638835874787
    },
    "Sad": {
        "m_FileID": 0,
        "m_PathID": -7262536206291977155
    },
    "Angry": {
        "m_FileID": 0,
        "m_PathID": -3312945402099708899
    }
}