{
    "m_GameObject": {
        "m_FileID": 0,
        "m_PathID": 0
    },
    "m_Enabled": 1,
    "m_Script": {
        "m_FileID": 0,
        "m_PathID": -280285695284159480
    },
    "m_Name": "wpn_mfen_01",
    "Type": 0,
    "PrimaryHidden": 0,
    "PrimaryForceOverride": 0,
    "PrimaryHand": {
        "m_FileID": 0,
        "m_PathID": -9109066558103577840
    },
    "PrimaryRename": "",
    "PrimaryHandChangeLists": [
        {
            "m_FileID": 0,
            "m_PathID": 0
        },
        {
            "m_FileID": 0,
            "m_PathID": -9109066558103577840
        }
    ],
    "SecondaryHidden": 0,
    "SecondaryForceOverride": 0,
    "SecondaryHand": {
        "m_FileID": 0,
        "m_PathID": 0
    },
    "SecondaryRename": "",
    "SecondaryHandChangeLists": [
        {
            "m_FileID": 0,
            "m_PathID": 3197400702447757325
        },
        {
            "m_FileID": 0,
            "m_PathID": -5742635075858408768
        }
    ],
    "TertiaryHidden": 0,
    "TertiaryForceOverride": 0,
    "TertiaryPlace": {
        "m_FileID": 0,
        "m_PathID": 0
    },
    "TertiaryRename": "",
    "TertiaryPlaceChangeLists": [],
    "OptionEquipmentLists": []
}