{
    "m_GameObject": {
        "m_FileID": 0,
        "m_PathID": 0
    },
    "m_Enabled": 1,
    "m_Script": {
        "m_FileID": 0,
        "m_PathID": -280285695284159480
    },
    "m_Name": "wpn_sh_henc_00",
    "Type": 0,
    "PrimaryHidden": 0,
    "PrimaryForceOverride": 0,
    "PrimaryHand": {
        "m_FileID": 0,
        "m_PathID": 7610935653264248125
    },
    "PrimaryRename": "",
    "PrimaryHandChangeLists": [
        {
            "m_FileID": 0,
            "m_PathID": 0
        },
        {
            "m_FileID": 0,
            "m_PathID": 1598948059016582894
        }
    ],
    "SecondaryHidden": 0,
    "SecondaryForceOverride": 0,
    "SecondaryHand": {
        "m_FileID": 0,
        "m_PathID": 0
    },
    "SecondaryRename": "",
    "SecondaryHandChangeLists": [
        {
            "m_FileID": 0,
            "m_PathID": 7610935653264248125
        },
        {
            "m_FileID": 0,
            "m_PathID": -7237152962017105070
        }
    ],
    "TertiaryHidden": 0,
    "TertiaryForceOverride": 0,
    "TertiaryPlace": {
        "m_FileID": 0,
        "m_PathID": 0
    },
    "TertiaryRename": "",
    "TertiaryPlaceChangeLists": [],
    "OptionEquipmentLists": []
}