{
    "m_GameObject": {
        "m_FileID": 0,
        "m_PathID": 0
    },
    "m_Enabled": 1,
    "m_Script": {
        "m_FileID": 0,
        "m_PathID": 5812833946668022119
    },
    "m_Name": "ev_tmate_02",
    "Normal": {
        "m_FileID": 0,
        "m_PathID": 2565193244920838960
    },
    "Smile": {
        "m_FileID": 0,
        "m_PathID": 2565193244920838960
    },
    "Sad": {
        "m_FileID": 0,
        "m_PathID": 2565193244920838960
    },
    "Angry": {
        "m_FileID": 0,
        "m_PathID": 3991121535280856954
    }
}