{
    "m_GameObject": {
        "m_FileID": 0,
        "m_PathID": 0
    },
    "m_Enabled": 1,
    "m_Script": {
        "m_FileID": 0,
        "m_PathID": 522912102410608360
    },
    "m_Name": "tips_images",
    "Items": [
        {
            "n": "TP_BAS_001_01",
            "s": {
                "m_FileID": 0,
                "m_PathID": 48712262171200974
            }
        },
        {
            "n": "TP_BAS_001_02",
            "s": {
                "m_FileID": 0,
                "m_PathID": 1662082001809828304
            }
        },
        {
            "n": "TP_BAS_002_01",
            "s": {
                "m_FileID": 0,
                "m_PathID": 1847888781827639326
            }
        },
        {
            "n": "TP_BAS_002_02",
            "s": {
                "m_FileID": 0,
                "m_PathID": -3399787384487675542
            }
        },
        {
            "n": "TP_BAS_003_01",
            "s": {
                "m_FileID": 0,
                "m_PathID": 5080382797480487462
            }
        },
        {
            "n": "TP_BAS_003_02",
            "s": {
                "m_FileID": 0,
                "m_PathID": -5501721881004273821
            }
        },
        {
            "n": "TP_BAS_004_01",
            "s": {
                "m_FileID": 0,
                "m_PathID": -6149466871492726127
            }
        },
        {
            "n": "TP_BAS_005_01",
            "s": {
                "m_FileID": 0,
                "m_PathID": 7589445696768814018
            }
        },
        {
            "n": "TP_BAS_005_02",
            "s": {
                "m_FileID": 0,
                "m_PathID": -514491904577437694
            }
        },
        {
            "n": "TP_BAS_006_01",
            "s": {
                "m_FileID": 0,
                "m_PathID": 4452960445129023948
            }
        },
        {
            "n": "TP_BAS_007_01",
            "s": {
                "m_FileID": 0,
                "m_PathID": -8761282738253499476
            }
        },
        {
            "n": "TP_BAS_008_01",
            "s": {
                "m_FileID": 0,
                "m_PathID": 5504390428502119103
            }
        },
        {
            "n": "TP_BAS_009_01",
            "s": {
                "m_FileID": 0,
                "m_PathID": -5325452503736197747
            }
        },
        {
            "n": "TP_BAS_009_02",
            "s": {
                "m_FileID": 0,
                "m_PathID": -5548175162539614851
            }
        },
        {
            "n": "TP_BAS_010_01",
            "s": {
                "m_FileID": 0,
                "m_PathID": 8772634620107449280
            }
        },
        {
            "n": "TP_BAS_010_02",
            "s": {
                "m_FileID": 0,
                "m_PathID": -2382391369689607726
            }
        },
        {
            "n": "TP_BAS_011_01",
            "s": {
                "m_FileID": 0,
                "m_PathID": 7870600097431175122
            }
        },
        {
            "n": "TP_BAS_011_02",
            "s": {
                "m_FileID": 0,
                "m_PathID": -9098670533418568235
            }
        },
        {
            "n": "TP_BAS_012_01",
            "s": {
                "m_FileID": 0,
                "m_PathID": -8687634890528567618
            }
        },
        {
            "n": "TP_BAS_013_01",
            "s": {
                "m_FileID": 0,
                "m_PathID": -5512531355298298129
            }
        },
        {
            "n": "TP_BAS_013_02",
            "s": {
                "m_FileID": 0,
                "m_PathID": 1313224112596470859
            }
        },
        {
            "n": "TP_BAS_014_01",
            "s": {
                "m_FileID": 0,
                "m_PathID": -1039025234626647680
            }
        },
        {
            "n": "TP_BAS_014_02",
            "s": {
                "m_FileID": 0,
                "m_PathID": 3699136802044287663
            }
        },
        {
            "n": "TP_BAS_014_03",
            "s": {
                "m_FileID": 0,
                "m_PathID": -1930905966394818634
            }
        },
        {
            "n": "TP_BAS_014_04",
            "s": {
                "m_FileID": 0,
                "m_PathID": -5954739798645567787
            }
        },
        {
            "n": "TP_BAS_014_05",
            "s": {
                "m_FileID": 0,
                "m_PathID": 8267970826305274911
            }
        },
        {
            "n": "TP_BAS_014_06",
            "s": {
                "m_FileID": 0,
                "m_PathID": -5798921324253533649
            }
        },
        {
            "n": "TP_BAS_014_07",
            "s": {
                "m_FileID": 0,
                "m_PathID": 4968543453809932840
            }
        },
        {
            "n": "TP_BAS_015_01",
            "s": {
                "m_FileID": 0,
                "m_PathID": 2572682698195768608
            }
        },
        {
            "n": "TP_BAS_015_02",
            "s": {
                "m_FileID": 0,
                "m_PathID": 0
            }
        },
        {
            "n": "TP_BAS_015_03",
            "s": {
                "m_FileID": 0,
                "m_PathID": 4744735154296807313
            }
        },
        {
            "n": "TP_BAS_015_04",
            "s": {
                "m_FileID": 0,
                "m_PathID": 0
            }
        },
        {
            "n": "TP_BAS_016_01",
            "s": {
                "m_FileID": 0,
                "m_PathID": 106783140085596052
            }
        },
        {
            "n": "TP_BAS_016_02",
            "s": {
                "m_FileID": 0,
                "m_PathID": 4361321441802065576
            }
        },
        {
            "n": "TP_BAS_016_03",
            "s": {
                "m_FileID": 0,
                "m_PathID": 2011889369195169471
            }
        },
        {
            "n": "TP_BAS_016_04",
            "s": {
                "m_FileID": 0,
                "m_PathID": -2282299635617066899
            }
        },
        {
            "n": "TP_BAS_016_05",
            "s": {
                "m_FileID": 0,
                "m_PathID": 2036562456359956159
            }
        },
        {
            "n": "TP_BAS_017_01",
            "s": {
                "m_FileID": 0,
                "m_PathID": 188832724900005424
            }
        },
        {
            "n": "TP_BAS_017_02",
            "s": {
                "m_FileID": 0,
                "m_PathID": 5286401875365849002
            }
        },
        {
            "n": "TP_BAS_017_03",
            "s": {
                "m_FileID": 0,
                "m_PathID": -400782936945984925
            }
        },
        {
            "n": "TP_BAS_017_04",
            "s": {
                "m_FileID": 0,
                "m_PathID": -6705400238482816479
            }
        },
        {
            "n": "TP_BAS_017_05",
            "s": {
                "m_FileID": 0,
                "m_PathID": 8866230637410879536
            }
        },
        {
            "n": "TP_BAS_017_06",
            "s": {
                "m_FileID": 0,
                "m_PathID": -9204951959154629191
            }
        },
        {
            "n": "TP_BAS_017_07",
            "s": {
                "m_FileID": 0,
                "m_PathID": 7455508327201220383
            }
        },
        {
            "n": "TP_BAS_017_08",
            "s": {
                "m_FileID": 0,
                "m_PathID": -6288808389873062598
            }
        },
        {
            "n": "TP_BAS_017_09",
            "s": {
                "m_FileID": 0,
                "m_PathID": 0
            }
        },
        {
            "n": "TP_BAS_018_01",
            "s": {
                "m_FileID": 0,
                "m_PathID": -6468627439540245232
            }
        },
        {
            "n": "TP_BAS_018_02",
            "s": {
                "m_FileID": 0,
                "m_PathID": -7035934286241827736
            }
        },
        {
            "n": "TP_BAS_018_03",
            "s": {
                "m_FileID": 0,
                "m_PathID": -1070977929843737358
            }
        },
        {
            "n": "TP_BAS_018_04",
            "s": {
                "m_FileID": 0,
                "m_PathID": 6959475970726640050
            }
        },
        {
            "n": "TP_BAS_018_05",
            "s": {
                "m_FileID": 0,
                "m_PathID": -2762241853845327638
            }
        },
        {
            "n": "TP_BAS_018_06",
            "s": {
                "m_FileID": 0,
                "m_PathID": 5477943485012645487
            }
        },
        {
            "n": "TP_BAS_019_01",
            "s": {
                "m_FileID": 0,
                "m_PathID": 4778831596042618234
            }
        },
        {
            "n": "TP_BAS_019_02",
            "s": {
                "m_FileID": 0,
                "m_PathID": -1351098495653178099
            }
        },
        {
            "n": "TP_BAS_019_03",
            "s": {
                "m_FileID": 0,
                "m_PathID": -2280443975566152393
            }
        },
        {
            "n": "TP_BAS_019_04",
            "s": {
                "m_FileID": 0,
                "m_PathID": 5130218566933438315
            }
        },
        {
            "n": "TP_BAS_021_01",
            "s": {
                "m_FileID": 0,
                "m_PathID": -5222359671856009287
            }
        },
        {
            "n": "TP_BAS_021_02",
            "s": {
                "m_FileID": 0,
                "m_PathID": -4240070909061922841
            }
        },
        {
            "n": "TP_BAS_020_01",
            "s": {
                "m_FileID": 0,
                "m_PathID": 8927078794751651559
            }
        },
        {
            "n": "TP_BAS_020_02",
            "s": {
                "m_FileID": 0,
                "m_PathID": -77134852116482336
            }
        },
        {
            "n": "TP_BAS_020_03",
            "s": {
                "m_FileID": 0,
                "m_PathID": 8468096311246963126
            }
        },
        {
            "n": "TP_BAS_022_01",
            "s": {
                "m_FileID": 0,
                "m_PathID": 6651306977659590814
            }
        },
        {
            "n": "TP_BAS_022_02",
            "s": {
                "m_FileID": 0,
                "m_PathID": -6933953941305571713
            }
        }
    ]
}