{
    "m_GameObject": {
        "m_FileID": 0,
        "m_PathID": 0
    },
    "m_Enabled": 1,
    "m_Script": {
        "m_FileID": 0,
        "m_PathID": 522912102410608360
    },
    "m_Name": "GuildFacilities",
    "Items": [
        {
            "n": "facility_00001",
            "s": {
                "m_FileID": 0,
                "m_PathID": -862572132665301079
            }
        },
        {
            "n": "facility_00002",
            "s": {
                "m_FileID": 0,
                "m_PathID": -6372296804717865840
            }
        }
    ]
}