{
    "m_GameObject": {
        "m_FileID": 0,
        "m_PathID": 0
    },
    "m_Enabled": 1,
    "m_Script": {
        "m_FileID": 0,
        "m_PathID": -4041471252985220290
    },
    "m_Name": "wpn_doc_udef_02",
    "Targets": [
        {
            "TargetName": "wpn_doc_udef_02_bone01",
            "Kinematic": 0.0,
            "Gravity": 1.0,
            "Length": 2.0,
            "ForwardAxis": 4,
            "Damping": 0.30000001192092896,
            "Acceleration": 0.0,
            "AngularLimit": 0.0
        }
    ],
    "SkirtTraceTargets": []
}