{
    "m_GameObject": {
        "m_FileID": 0,
        "m_PathID": 0
    },
    "m_Enabled": 1,
    "m_Script": {
        "m_FileID": 0,
        "m_PathID": 5812833946668022119
    },
    "m_Name": "en_dilg_swim",
    "Normal": {
        "m_FileID": 0,
        "m_PathID": 3396213698088003024
    },
    "Smile": {
        "m_FileID": 0,
        "m_PathID": 2048247439869812362
    },
    "Sad": {
        "m_FileID": 0,
        "m_PathID": -7348399522894413769
    },
    "Angry": {
        "m_FileID": 0,
        "m_PathID": -6605846909405775570
    }
}