{
    "m_GameObject": {
        "m_FileID": 0,
        "m_PathID": 0
    },
    "m_Enabled": 1,
    "m_Script": {
        "m_FileID": 0,
        "m_PathID": 5812833946668022119
    },
    "m_Name": "guard",
    "Normal": {
        "m_FileID": 0,
        "m_PathID": -5397262262963929210
    },
    "Smile": {
        "m_FileID": 0,
        "m_PathID": -5397262262963929210
    },
    "Sad": {
        "m_FileID": 0,
        "m_PathID": -5397262262963929210
    },
    "Angry": {
        "m_FileID": 0,
        "m_PathID": -5397262262963929210
    }
}