{
    "m_GameObject": {
        "m_FileID": 0,
        "m_PathID": 0
    },
    "m_Enabled": 1,
    "m_Script": {
        "m_FileID": 0,
        "m_PathID": 5812833946668022119
    },
    "m_Name": "bert",
    "Normal": {
        "m_FileID": 0,
        "m_PathID": 4159235191606691664
    },
    "Smile": {
        "m_FileID": 0,
        "m_PathID": -9022725726308869359
    },
    "Sad": {
        "m_FileID": 0,
        "m_PathID": 4159235191606691664
    },
    "Angry": {
        "m_FileID": 0,
        "m_PathID": -5766340782554091457
    }
}